<?xml version="1.0" standalone="no"?>
<!DOCTYPE svg PUBLIC "-//W3C//DTD SVG 1.1//EN" "http://www.w3.org/Graphics/SVG/1.1/DTD/svg11.dtd">
<svg xmlns="http://www.w3.org/2000/svg">
<metadata>Generated by Fontastic.me</metadata>
<defs>
<font id="kcicons" horiz-adv-x="512">
<font-face font-family="kcicons" units-per-em="512" ascent="480" descent="-32"/>
<missing-glyph horiz-adv-x="512" />

<glyph unicode="&#97;" d="M454 126c-24 23-54 34-83 51-7 5-19 10-29 17-29 17-41 37-17 66 26 32 41 69 46 109 8 66-24 120-78 137-12 4-25 5-37 6-12-1-24-2-36-6-55-17-87-71-79-137 5-40 20-77 46-109 24-30 12-49-17-66-10-7-22-12-29-17-29-18-59-29-83-51-33-31-23-79 18-97 23-10 49-17 74-21 31-5 63-6 95-9 4 0 7 0 11 0 4 0 8 0 12 0 31 3 63 4 94 9 26 4 51 10 74 21 41 18 51 66 18 97z"/>
<glyph unicode="&#98;" d="M510 104l-3 8c-6 18-25 36-44 42l-67 18c-18 5-44-2-57-15l-25-24c-88 23-158 93-181 181l24 25c13 13 20 39 15 57l-18 67c-5 19-24 38-42 44l-8 3c-18 7-43 0-57-13l-36-37c-6-6-10-25-10-25-2-115 44-227 125-309 82-81 193-127 308-125 1 0 20 4 26 10l36 37c14 12 20 38 14 56z"/>
<glyph unicode="&#99;" d="M203 273l-76 0c-19 0-34 15-34 34l0 76c0 19 15 34 34 34l76 0c19 0 34-15 34-34l0-76c0-19-15-34-34-34z m0-178l-76 0c-19 0-34 16-34 35l0 75c0 19 15 34 34 34l76 0c19 0 34-15 34-34l0-76c0-18-15-34-34-34z m182 178l-76 0c-19 0-34 15-34 34l0 76c0 19 15 34 34 34l76 0c19 0 34-15 34-34l0-76c0-19-15-34-34-34z m0-178l-76 0c-19 0-34 16-34 35l0 75c0 19 15 35 34 35l76 0c19 0 34-16 34-35l0-75c0-19-15-35-34-35z"/>
<glyph unicode="&#115;" d="M360 109c-122-84-252-39-314 43-69 91-59 218 22 297 81 79 209 84 298 12 81-65 117-193 38-308 28-28 58-57 87-86 4-5 9-9 13-15 11-15 10-32-2-44-12-11-29-13-43 0-16 15-32 30-47 46-17 19-35 37-52 55z m24 178c0 88-72 161-160 161-87 0-159-71-160-158-1-88 71-161 159-162 88 0 161 72 161 159z"/>
<glyph unicode="&#114;" d="M36 167c7 20 20 41 35 57 63 65 127 129 190 192 52-52 103-103 154-154-68-68-136-138-208-206-17-15-44-22-67-29-30-10-124-36-137-24-13 13 20 127 33 164z m434 151c-51 51-101 101-152 151 41 51 111 58 158 14 50-46 48-115-6-165z"/>
<glyph unicode="&#113;" d="M256 16c-132 0-240 108-240 240 0 132 108 240 240 240 133 0 240-108 240-240 0-132-108-240-240-240z m0 442c-111 0-202-91-202-202 0-112 91-202 202-202 111 0 202 91 202 202 0 111-91 202-202 202z m114-166l-78 0 0 78-72 0 0-78-78 0 0-72 78 0 0-78 72 0 0 78 78 0z"/>
<glyph unicode="&#112;" d="M286 366c-20 19-39 36-55 55-7 9-14 25-10 33 4 9 19 18 30 20 69 8 137 14 206 20 27 2 41-11 39-38-6-71-12-142-20-212-1-10-11-22-19-26-9-2-23 2-31 8-20 17-38 38-59 59-35-35-68-69-102-103-12-12-23-24-35-35-15-16-30-16-46-1-11 11-23 22-34 34-17 18-17 31 0 49 40 40 80 79 120 119 5 6 9 11 16 18z m-74-20c-13-12-26-25-41-37-4-3-11-4-17-5-20 0-38 0-57 0-22-1-34-13-34-35-1-56-1-113 0-169 0-24 12-36 37-36 55 0 111 0 165 0 26 0 40 12 37 38-6 42 15 67 47 90 0-4 2-7 2-11 0-38 0-75 0-113 0-34-17-50-50-50-79 0-159 0-238 0-31 0-47 15-47 46 0 81 0 161 0 242 0 27 14 45 41 46 51 1 101 0 152 0 0-1 2-4 3-6z"/>
<glyph unicode="&#111;" d="M329 338l-25 0-2 1c-5 19-10 33-15 42-23 53-36 81-36 85l0 3-4 0c-7-6-16-19-28-39-22-57-37-93-44-108l-59 5c0 0-71 11-75 2-1-3 8-17 20-32l-1 0 0-1 2-5c15-16 28-29 38-41 22-25 34-40 34-45 11-5 16-11 16-18l0 0c-3-53-7-85-11-97-7-16-10-27-10-32 2-8 4-13 7-14 4 0 7 1 10 3l69 51c24 24 39 36 44 36 10 0 37-6 79-18 36-12 66-25 89-39 3 0 6 2 10 5 0 4-2 7-6 9-17 25-26 40-26 46-15 30-28 58-40 86l0 2c0 1 14 15 43 40 23 16 39 29 48 39 5 10 11 19 16 25l0 2c-1 3-48 5-143 7z"/>
<glyph unicode="&#110;" d="M318 512c-107 0-195-87-195-195 0-41 13-79 35-111l-47-47-52 52c-14 13-35 13-49 0-13-14-13-35 0-49l52-52-42-42c-14-14-14-35 0-49 7-6 16-9 24-9 9 0 18 3 24 10l43 42 52-52c6-7 15-10 24-10 9 0 17 3 24 10 14 14 14 35 0 49l-52 52 48 47c31-22 70-35 111-35 107 0 195 88 195 195 0 107-88 194-195 194z m0-320c-70 0-126 56-126 125 0 70 56 126 126 126 69 0 126-56 126-126-1-69-57-125-126-125z"/>
<glyph unicode="&#109;" d="M47 252c-6 1-12 1-17 4-11 4-16 16-13 27 3 11 13 17 23 17 17 0 35 0 53 0-3-12-1-24 6-35 19-26 58-25 74 3 6 10 12 19 17 28 1 3 2 4 6 4 40 0 79 0 120 0 3 0 5-1 6-4 7-11 13-23 21-33 9-12 22-18 37-16 20 2 33 13 39 31 2 7 2 14 2 22 4 0 7 0 11 0 15 0 28 0 42 0 12 0 22-10 22-22 0-14-9-25-22-25-3 0-5 0-8 0-3-9-5-18-8-27-13-49-26-99-39-149-4-15-21-26-35-26-85 0-169 0-255 0-17 0-32 12-36 28-15 56-30 112-44 168-2 2-2 4-2 5z m111-103c0 16 0 33 0 49 0 6-5 14-12 14-8 0-13-6-13-14 0-33 0-66 0-99 0-8 5-14 12-14 7 0 13 6 13 14 0 17 0 34 0 50z m148 0c0 16-1 33 0 49 0 8-7 14-12 14-8 0-13-6-13-14 0-33 0-65 0-99 0-8 6-14 13-13 7 0 12 7 12 13-1 17 0 34 0 50z m49 0c0-16 0-32 0-49 0-2 0-6 2-9 3-5 8-6 13-5 7 2 10 7 10 14 0 32 0 65 0 97 0 8-6 15-14 15-7 0-12-6-12-15 1-16 1-32 1-48z m-148 0c0-6 0-11 0-16 0-12 0-23 0-35 0-9 8-14 15-12 7 3 10 7 10 15 0 16 0 33 0 49 0 15 0 31 0 46 0 9-6 15-14 15-7 0-12-6-12-15 1-15 1-31 1-47z m-96 142c1 4 2 8 4 12 28 48 56 97 84 146 5 9 17 14 28 11 11-3 17-13 16-24 0-4-1-8-3-11-28-48-56-97-84-145-5-10-16-14-27-11-10 2-17 11-18 22z m266-24c-11 1-17 6-22 14-18 31-36 62-54 93-9 17-19 34-29 51-7 13-3 27 10 33 12 6 25 2 31-10 25-43 49-85 74-128 4-6 8-12 11-19 7-15-4-34-21-34z"/>
<glyph unicode="&#108;" d="M511 480c0 2 0 3-1 3 0 1 0 2-1 4 0 1-1 2-2 4 0 1-1 1-1 2-3 4-6 8-10 10-1 1-1 1-3 2-1 0-2 1-3 1-1 0-2 0-3 1-1 0-2 0-3 1-2 1-4 1-6 1 0 0 0 0 0 0l-178 0c-19 0-35-16-35-35 0-20 16-35 35-35l93 0-78-78c-33 24-73 38-117 38-109 0-198-89-198-197 0-109 89-198 198-198 109 0 197 89 197 198 0 40-12 77-33 108l79 80 0-93c0-19 16-35 35-35 20 0 35 16 35 35l0 177c1 2 1 4 0 6z m-313-407c-71 0-129 58-129 129 0 70 58 127 129 127 70 0 128-57 128-127 0-71-57-129-128-129z"/>
<glyph unicode="&#107;" d="M256 488c128 1 232-102 232-232 0-129-103-232-232-232-128 0-232 103-232 231-1 128 104 233 232 233z m55-346c-46-7-52 1-42 41 6 23 13 46 18 69 5 24-8 47-28 47-21 0-42-6-63-11-3 0-5-7-9-13 43 5 48-2 39-41-3-12-7-23-10-35-3-14-7-29-8-43-2-23 12-40 35-40 18 0 36 6 53 10 5 2 8 8 15 16z m0 224c-1 18-17 33-36 32-18-1-33-16-33-33 1-17 17-31 35-31 19-1 35 14 34 32z"/>
<glyph unicode="&#105;" d="M410 0l16 17c-1 0-78 69-145 124-53 42-121 80-151 96 35 25 122 90 172 135 63 56 124 124 125 125l-17 15c-1-1-61-68-123-123-62-56-184-143-185-144l-16-11 17-8c1-1 97-48 163-102 68-55 143-123 144-124z"/>
<glyph unicode="&#106;" d="M102 0l-16 17c1 0 78 69 145 124 53 42 121 80 151 96-35 25-122 90-172 135-63 56-124 124-125 125l17 15c1-1 62-68 124-123 62-56 184-143 185-144l15-11-17-8c-1-1-96-48-163-102-67-55-143-123-144-124z"/>
<glyph unicode="&#104;" d="M257 383c0 0 39 53 74 76 35 24 88 29 125-2 37-31 38-88 23-140-14-53-73-123-104-163-31-41-95-120-95-120 0 0-93 82-144 137-51 55-115 147-112 210 3 63 50 90 102 91 53 2 79-27 98-48 18-21 33-41 33-41z"/>
<glyph unicode="&#103;" d="M395 397l-7 0-19 42c-5 11-24 22-40 22l-143 0c-17 0-35-11-40-22l-20-42-9 0c-44 0-80-36-80-80l0-185c0-45 36-80 80-80l278 0c44 0 80 36 80 80l0 185c0 44-36 80-80 80z m-139-300c-70 0-127 57-127 127 0 71 57 128 127 128 71 0 127-58 127-128 0-70-57-127-127-127z m0 204c-43 0-77-34-77-77 0-43 34-77 77-77 43 0 78 34 78 77 0 43-35 77-78 77z"/>
<glyph unicode="&#102;" d="M78 461l49 51 307-256-306-256-50 50 249 205z"/>
<glyph unicode="&#101;" d="M461 434l51-49-256-307-256 306 50 50 205-249z"/>
<glyph unicode="&#100;" d="M84 94c0 4-2 9 0 11 41 43 82 85 124 128 31-24 61-26 91-7 4 2 12 0 15-3 39-38 78-78 117-117 2-3 1-8 2-13-116 1-233 1-349 1z m-39 275c2 5 5 10 8 15 3-2 6-4 9-6 39-42 78-83 117-125-41-39-84-81-128-124 0 1-3 6-6 10 0 77 0 153 0 230z m389 43c-50-51-99-102-148-151-16-16-40-16-56 0-49 47-98 96-147 144-2 1-2 4-3 5 18 10 335 11 354 2z m33-24c0-89 0-174 0-264-10 6-15 10-19 14-35 35-71 71-106 107-9 8-11 14-1 23 39 37 77 75 116 112 1 2 3 3 10 8z"/>
<glyph unicode="&#116;" d="M376 280c-47 0-85-38-85-84 0-47 38-85 85-85 47 0 85 38 85 85 0 46-38 84-85 84z m52-100l-102 0 0 29 102 0z m-130-74c-14-14-28-28-42-42-132 133-242 226-195 324 41 83 164 76 195 4 31 72 154 79 195-4 16-33 14-66-1-99-20 16-46 26-74 26-66 0-119-53-119-119 0-36 16-68 41-90z"/>
<glyph unicode="&#117;" d="M318 121c-18-19-39-39-62-62-152 148-195 202-204 258-11 68 40 136 119 136 34 0 64-13 85-35 21 22 51 35 85 35 79 0 130-68 119-136-2-13-6-25-12-39l-31 31c17 54-19 104-76 104-51 0-73-40-85-60-11 18-31 60-85 60-32 0-59-16-72-43-34-69 42-139 157-254 12 11 23 23 34 34z m128 109l-52 0 0 52-41 0 0-52-53 0 0-41 53 0 0-53 41 0 0 53 52 0z"/>
<glyph unicode="&#118;" d="M211 212l-146 250 383 0-147-250z m10-34l0-128 70 0 0 128z"/>
<glyph unicode="&#119;" d="M210 318c0 8-6 15-15 15-8 0-15-7-15-15l0-183c0-8 7-15 15-15 9 0 15 7 15 15z m61 0c0 8-7 15-15 15-8 0-15-7-15-15l0-183c0-8 7-15 15-15 8 0 15 7 15 15z m61 0c0 8-7 15-15 15-9 0-15-7-15-15l0-183c0-8 6-15 15-15 8 0 15 7 15 15z m39-231l-230 0 0 279-35 0 0-314 300 0 0 314-35 0z m-41 349c-16 0-28 13-28 28l-92 0c0-15-12-28-28-28l-95 0 0-40 338 0 0 40z"/>
</font></defs></svg>
